9780553289107
9782290353080
9782290344408
9782290337066
9782290337059
9782290356920
9782290004739
9782290004746
9782290010846
9782290325711
9782737338175
9782840550334
9782840550907
9782917371824
9782260029212
9782743624491
9782818934135
9782356740236
9780553289107
9780451162410
076783006508
0451162412
076783004955
076783006508


